%YAML 1.1
%TAG !u! tag:unity3d.com,2011:
--- !u!21 &2100000
Material:
  serializedVersion: 8
  m_ObjectHideFlags: 0
  m_CorrespondingSourceObject: {fileID: 0}
  m_PrefabInstance: {fileID: 0}
  m_PrefabAsset: {fileID: 0}
  m_Name: MI_ChestS1
  m_Shader: {fileID: 4800000, guid: defb5648a3859a84aad0a4053a6f0189, type: 3}
  m_Parent: {fileID: 0}
  m_ModifiedSerializedProperties: 0
  m_ValidKeywords:
  - _ALPHATEST_ON
  - _DOUBLESIDED_ON
  m_InvalidKeywords:
  - _ADD_PRECOMPUTED_VELOCITY
  - _DISABLE_SSR_TRANSPARENT
  m_LightmapFlags: 4
  m_EnableInstancingVariants: 0
  m_DoubleSidedGI: 1
  m_CustomRenderQueue: 2475
  stringTagMap:
    MotionVector: User
    RenderType: TransparentCutout
  disabledShaderPasses:
  - TransparentBackface
  m_LockedProperties: 
  m_SavedProperties:
    serializedVersion: 3
    m_TexEnvs:
    - _AO:
        m_Texture: {fileID: 2800000, guid: 5f722a0125ab63f498c4b5d7c5963dad, type: 3}
        m_Scale: {x: 1, y: 1}
        m_Offset: {x: 0, y: 0}
    - _BC:
        m_Texture: {fileID: 2800000, guid: b94aa195face3fa4aab30a22d8c4f151, type: 3}
        m_Scale: {x: 1, y: 1}
        m_Offset: {x: 0, y: 0}
    - _BaseColor:
        m_Texture: {fileID: 2800000, guid: b94aa195face3fa4aab30a22d8c4f151, type: 3}
        m_Scale: {x: 1, y: 1}
        m_Offset: {x: 0, y: 0}
    - _BumpMap:
        m_Texture: {fileID: 0}
        m_Scale: {x: 1, y: 1}
        m_Offset: {x: 0, y: 0}
    - _DetailAlbedoMap:
        m_Texture: {fileID: 0}
        m_Scale: {x: 1, y: 1}
        m_Offset: {x: 0, y: 0}
    - _DetailMask:
        m_Texture: {fileID: 0}
        m_Scale: {x: 1, y: 1}
        m_Offset: {x: 0, y: 0}
    - _DetailNormalMap:
        m_Texture: {fileID: 0}
        m_Scale: {x: 1, y: 1}
        m_Offset: {x: 0, y: 0}
    - _Dirt:
        m_Texture: {fileID: 2800000, guid: b12832a5c5b9a6d459b628e96240a19f, type: 3}
        m_Scale: {x: 1, y: 1}
        m_Offset: {x: 0, y: 0}
    - _EmissionMap:
        m_Texture: {fileID: 0}
        m_Scale: {x: 1, y: 1}
        m_Offset: {x: 0, y: 0}
    - _EmissiveMask:
        m_Texture: {fileID: 0}
        m_Scale: {x: 1, y: 1}
        m_Offset: {x: 0, y: 0}
    - _EmissiveMask1:
        m_Texture: {fileID: 0}
        m_Scale: {x: 1, y: 1}
        m_Offset: {x: 0, y: 0}
    - _EmissivePannerMap:
        m_Texture: {fileID: 0}
        m_Scale: {x: 1, y: 1}
        m_Offset: {x: 0, y: 0}
    - _EmissivePannerMap1:
        m_Texture: {fileID: 0}
        m_Scale: {x: 1, y: 1}
        m_Offset: {x: 0, y: 0}
    - _MainTex:
        m_Texture: {fileID: 0}
        m_Scale: {x: 1, y: 1}
        m_Offset: {x: 0, y: 0}
    - _Mask:
        m_Texture: {fileID: 2800000, guid: b5ecd576b33b4a9499b16826712c58e2, type: 3}
        m_Scale: {x: 1, y: 1}
        m_Offset: {x: 0, y: 0}
    - _Metallic:
        m_Texture: {fileID: 2800000, guid: 25f76a189f67d24469925764e7fc0e4f, type: 3}
        m_Scale: {x: 1, y: 1}
        m_Offset: {x: 0, y: 0}
    - _MetallicGlossMap:
        m_Texture: {fileID: 0}
        m_Scale: {x: 1, y: 1}
        m_Offset: {x: 0, y: 0}
    - _Normal:
        m_Texture: {fileID: 2800000, guid: dbc876954d051e3419d9d9d1b7af012d, type: 3}
        m_Scale: {x: 1, y: 1}
        m_Offset: {x: 0, y: 0}
    - _OcclusionMap:
        m_Texture: {fileID: 0}
        m_Scale: {x: 1, y: 1}
        m_Offset: {x: 0, y: 0}
    - _ParallaxMap:
        m_Texture: {fileID: 0}
        m_Scale: {x: 1, y: 1}
        m_Offset: {x: 0, y: 0}
    - _Roughness:
        m_Texture: {fileID: 2800000, guid: 2d9808581e7259d49a817e7d00fcc3de, type: 3}
        m_Scale: {x: 1, y: 1}
        m_Offset: {x: 0, y: 0}
    - _SSSMask:
        m_Texture: {fileID: 0}
        m_Scale: {x: 1, y: 1}
        m_Offset: {x: 0, y: 0}
    - _SSSMask1:
        m_Texture: {fileID: 0}
        m_Scale: {x: 1, y: 1}
        m_Offset: {x: 0, y: 0}
    - _Texture01:
        m_Texture: {fileID: 0}
        m_Scale: {x: 1, y: 1}
        m_Offset: {x: 0, y: 0}
    - _Texture02:
        m_Texture: {fileID: 0}
        m_Scale: {x: 1, y: 1}
        m_Offset: {x: 0, y: 0}
    - _Texture03:
        m_Texture: {fileID: 0}
        m_Scale: {x: 1, y: 1}
        m_Offset: {x: 0, y: 0}
    - _Texture04:
        m_Texture: {fileID: 0}
        m_Scale: {x: 1, y: 1}
        m_Offset: {x: 0, y: 0}
    - _texcoord:
        m_Texture: {fileID: 0}
        m_Scale: {x: 1, y: 1}
        m_Offset: {x: 0, y: 0}
    - unity_Lightmaps:
        m_Texture: {fileID: 0}
        m_Scale: {x: 1, y: 1}
        m_Offset: {x: 0, y: 0}
    - unity_LightmapsInd:
        m_Texture: {fileID: 0}
        m_Scale: {x: 1, y: 1}
        m_Offset: {x: 0, y: 0}
    - unity_ShadowMasks:
        m_Texture: {fileID: 0}
        m_Scale: {x: 1, y: 1}
        m_Offset: {x: 0, y: 0}
    m_Ints: []
    m_Floats:
    - _AddPrecomputedVelocity: 1
    - _AlphaCutoff: 0.5
    - _AlphaCutoffEnable: 1
    - _AlphaDstBlend: 0
    - _AlphaSrcBlend: 1
    - _AlphaToMask: 0
    - _AlphaToMaskInspectorValue: 0
    - _BlendColorPower01: 0
    - _BlendColorPower02: 0
    - _BlendColorPower03: 0
    - _BlendColorPower04: 0
    - _BlendMode: 0
    - _BlendTexture01: 0
    - _BlendTexture02: 0
    - _BlendTexture03: 0
    - _BlendTexture04: 0
    - _BlendTextureMode: 0
    - _BumpScale: 1
    - _CullMode: 0
    - _CullModeForward: 0
    - _Cutoff: 0.5
    - _DarkMode: 0
    - _DetailNormalMapScale: 1
    - _DirtBoots: 0
    - _DirtRoughness: 0
    - _DirtRoughness_Power: 0
    - _DirtRoughness_Power1: 0
    - _DitherBoosts: 9.5
    - _DoubleSidedEnable: 1
    - _DoubleSidedGIMode: 0
    - _DoubleSidedNormalMode: 1
    - _DstBlend: 0
    - _EmissiveBoots1: 0
    - _EmissiveBoots2: 0
    - _EmissiveBoots3: 0
    - _EmissiveBoots4: 0
    - _EmissiveBoots5: 0
    - _EmissivePannerTilling: 1
    - _EmissivePannerTilling1: 1
    - _Emissivepowerboost: 100
    - _Emissivepowerboost1: 100
    - _EnableBlendModePreserveSpecularLighting: 1
    - _EnableFogOnTransparent: 1
    - _Float0: 0
    - _Float1: 0
    - _GlossMapScale: 1
    - _Glossiness: 0.5
    - _GlossyReflections: 1
    - _Metallic: 0
    - _MetallicBoots01: 1
    - _MetallicBoots02: 1
    - _MetallicBoots03: 1
    - _MetallicBoots04: 1
    - _Mode: 0
    - _OcclusionStrength: 1
    - _OnOffOpacity: 0
    - _OpacityBoosts: 9.5
    - _OpacityBoots: 0.5
    - _OpaqueCullMode: 2
    - _Parallax: 0.02
    - _ReceivesSSR: 1
    - _ReceivesSSRTransparent: 0
    - _RenderQueueType: 1
    - _RequireSplitLighting: 0
    - _RoughnessBoost01: 1
    - _RoughnessBoost02: 1
    - _RoughnessBoost03: 1
    - _RoughnessBoost04: 1
    - _SSSon: 0
    - _SmoothnessTextureChannel: 0
    - _SpecularHighlights: 1
    - _SrcBlend: 1
    - _StencilRef: 0
    - _StencilRefDepth: 8
    - _StencilRefDistortionVec: 4
    - _StencilRefGBuffer: 10
    - _StencilRefMV: 40
    - _StencilWriteMask: 6
    - _StencilWriteMaskDepth: 9
    - _StencilWriteMaskDistortionVec: 4
    - _StencilWriteMaskGBuffer: 15
    - _StencilWriteMaskMV: 41
    - _SupportDecals: 1
    - _SurfaceType: 0
    - _TransAmbient: 0.2
    - _TransDirect: 1
    - _TransNormalDistortion: 0.1
    - _TransScattering: 2
    - _TransShadow: 0.9
    - _Translucency: 1
    - _TransparentBackfaceEnable: 0
    - _TransparentCullMode: 2
    - _TransparentSortPriority: 0
    - _TransparentWritingMotionVec: 0
    - _TransparentZWrite: 1
    - _UVSec: 0
    - _UseAlphaCutOut: 0
    - _UseShadowThreshold: 0
    - _ZTestDepthEqualForOpaque: 3
    - _ZTestGBuffer: 3
    - _ZTestTransparent: 4
    - _ZWrite: 1
    - __dirty: 1
    m_Colors:
    - _BlendColor01: {r: 1, g: 1, b: 1, a: 0}
    - _BlendColor02: {r: 1, g: 1, b: 1, a: 0}
    - _BlendColor03: {r: 1, g: 1, b: 1, a: 0}
    - _BlendColor04: {r: 1, g: 1, b: 1, a: 0}
    - _Color: {r: 1, g: 1, b: 1, a: 1}
    - _DoubleSidedConstants: {r: 1, g: 1, b: -1, a: 0}
    - _EmissionColor: {r: 1, g: 1, b: 1, a: 1}
    - _EmissiveColor01: {r: 0, g: 0, b: 0, a: 0}
    - _EmissiveColor02: {r: 0, g: 0, b: 0, a: 0}
    - _EmissiveColor03: {r: 0, g: 0, b: 0, a: 0}
    - _EmissiveColor04: {r: 0, g: 0, b: 0, a: 0}
    - _EmissiveColor2: {r: 0, g: 0, b: 0, a: 0}
    - _EmissiveColor3: {r: 0, g: 0, b: 0, a: 0}
    - _EmissiveColor4: {r: 0, g: 0, b: 0, a: 0}
    - _EmissiveColor5: {r: 0, g: 0, b: 0, a: 0}
    - _PannerProperty: {r: 0, g: 0, b: 0, a: 0}
    - _PannerProperty1: {r: 0, g: 0, b: 0, a: 0}
    - _SSSColor: {r: 1, g: 0.8184171, b: 0.7122642, a: 1}
    - _SSSColor1: {r: 1, g: 0.8184171, b: 0.7122642, a: 1}
  m_BuildTextureStacks: []
