%YAML 1.1
%TAG !u! tag:unity3d.com,2011:
--- !u!114 &-3385646915011833312
MonoBehaviour:
  m_ObjectHideFlags: 11
  m_CorrespondingSourceObject: {fileID: 0}
  m_PrefabInstance: {fileID: 0}
  m_PrefabAsset: {fileID: 0}
  m_GameObject: {fileID: 0}
  m_Enabled: 1
  m_EditorHideFlags: 0
  m_Script: {fileID: 11500000, guid: aa486462e6be1764e89c788ba30e61f7, type: 3}
  m_Name: 
  m_EditorClassIdentifier: 
  m_DiffusionProfileReferences:
  - {fileID: 11400000, guid: a5f24f96b7e76d7408ead3be1ac46cea, type: 2}
  m_MaterialReferences: []
--- !u!21 &2100000
Material:
  serializedVersion: 8
  m_ObjectHideFlags: 0
  m_CorrespondingSourceObject: {fileID: 0}
  m_PrefabInstance: {fileID: 0}
  m_PrefabAsset: {fileID: 0}
  m_Name: MI_BodySkin_MU
  m_Shader: {fileID: 4800000, guid: 253869db2350ef74b8ded21df899e14b, type: 3}
  m_Parent: {fileID: 0}
  m_ModifiedSerializedProperties: 0
  m_ValidKeywords: []
  m_InvalidKeywords:
  - _ADD_PRECOMPUTED_VELOCITY
  - _DISABLE_SSR_TRANSPARENT
  m_LightmapFlags: 4
  m_EnableInstancingVariants: 0
  m_DoubleSidedGI: 0
  m_CustomRenderQueue: 2225
  stringTagMap:
    MotionVector: User
  disabledShaderPasses:
  - TransparentBackface
  m_LockedProperties: 
  m_SavedProperties:
    serializedVersion: 3
    m_TexEnvs:
    - _AO:
        m_Texture: {fileID: 2800000, guid: f85120711665ef14c8895f68e81308e1, type: 3}
        m_Scale: {x: 1, y: 1}
        m_Offset: {x: 0, y: 0}
    - _BumpMap:
        m_Texture: {fileID: 0}
        m_Scale: {x: 1, y: 1}
        m_Offset: {x: 0, y: 0}
    - _DetailAlbedoMap:
        m_Texture: {fileID: 0}
        m_Scale: {x: 1, y: 1}
        m_Offset: {x: 0, y: 0}
    - _DetailMask:
        m_Texture: {fileID: 0}
        m_Scale: {x: 1, y: 1}
        m_Offset: {x: 0, y: 0}
    - _DetailNormalMap:
        m_Texture: {fileID: 0}
        m_Scale: {x: 1, y: 1}
        m_Offset: {x: 0, y: 0}
    - _Dirt:
        m_Texture: {fileID: 2800000, guid: f721bfc5ef16a4a4280f6a3ae7fbadea, type: 3}
        m_Scale: {x: 1, y: 1}
        m_Offset: {x: 0, y: 0}
    - _EmissionMap:
        m_Texture: {fileID: 0}
        m_Scale: {x: 1, y: 1}
        m_Offset: {x: 0, y: 0}
    - _EmissiveMask:
        m_Texture: {fileID: 0}
        m_Scale: {x: 1, y: 1}
        m_Offset: {x: 0, y: 0}
    - _EmissivePannerMap:
        m_Texture: {fileID: 0}
        m_Scale: {x: 1, y: 1}
        m_Offset: {x: 0, y: 0}
    - _MainTex:
        m_Texture: {fileID: 0}
        m_Scale: {x: 1, y: 1}
        m_Offset: {x: 0, y: 0}
    - _Mask:
        m_Texture: {fileID: 2800000, guid: a0e1f84cbe58516439f0108c757f8fde, type: 3}
        m_Scale: {x: 1, y: 1}
        m_Offset: {x: 0, y: 0}
    - _MetallicGlossMap:
        m_Texture: {fileID: 0}
        m_Scale: {x: 1, y: 1}
        m_Offset: {x: 0, y: 0}
    - _OcclusionMap:
        m_Texture: {fileID: 0}
        m_Scale: {x: 1, y: 1}
        m_Offset: {x: 0, y: 0}
    - _ParallaxMap:
        m_Texture: {fileID: 0}
        m_Scale: {x: 1, y: 1}
        m_Offset: {x: 0, y: 0}
    - _RoughnessMod_R:
        m_Texture: {fileID: 2800000, guid: c0b7b18616e3d4c4d9f007d6681e9331, type: 3}
        m_Scale: {x: 1, y: 1}
        m_Offset: {x: 0, y: 0}
    - _SSSMask:
        m_Texture: {fileID: 2800000, guid: cb7b1ebf65f1d384c8bbc526646a6607, type: 3}
        m_Scale: {x: 1, y: 1}
        m_Offset: {x: 0, y: 0}
    - _SkinColor:
        m_Texture: {fileID: 2800000, guid: b09877e2d5688ef448e25dea0acad39c, type: 3}
        m_Scale: {x: 1, y: 1}
        m_Offset: {x: 0, y: 0}
    - _SkinNormal:
        m_Texture: {fileID: 2800000, guid: cf7116e15b74aff4483d03218628f69c, type: 3}
        m_Scale: {x: 1, y: 1}
        m_Offset: {x: 0, y: 0}
    - _SkinPore:
        m_Texture: {fileID: 2800000, guid: d54cdf79e278424479766a2d304e064f, type: 3}
        m_Scale: {x: 1, y: 1}
        m_Offset: {x: 0, y: 0}
    - _SkinRoughness:
        m_Texture: {fileID: 2800000, guid: b27bb5d3e86d3f44d9a86179daaf2dce, type: 3}
        m_Scale: {x: 1, y: 1}
        m_Offset: {x: 0, y: 0}
    - _texcoord:
        m_Texture: {fileID: 0}
        m_Scale: {x: 1, y: 1}
        m_Offset: {x: 0, y: 0}
    - _texcoord2:
        m_Texture: {fileID: 0}
        m_Scale: {x: 1, y: 1}
        m_Offset: {x: 0, y: 0}
    - unity_Lightmaps:
        m_Texture: {fileID: 0}
        m_Scale: {x: 1, y: 1}
        m_Offset: {x: 0, y: 0}
    - unity_LightmapsInd:
        m_Texture: {fileID: 0}
        m_Scale: {x: 1, y: 1}
        m_Offset: {x: 0, y: 0}
    - unity_ShadowMasks:
        m_Texture: {fileID: 0}
        m_Scale: {x: 1, y: 1}
        m_Offset: {x: 0, y: 0}
    m_Ints: []
    m_Floats:
    - _AddPrecomputedVelocity: 1
    - _AlphaCutoff: 0.5
    - _AlphaCutoffEnable: 0
    - _AlphaDstBlend: 0
    - _AlphaSrcBlend: 1
    - _AlphaToMask: 0
    - _AlphaToMaskInspectorValue: 0
    - _BlendMode: 0
    - _BumpScale: 1
    - _ColorPow: 0.35
    - _CullMode: 2
    - _CullModeForward: 2
    - _Cutoff: 0.5
    - _DetailNormalMapScale: 1
    - _DiffusionProfileHash: 2.578994
    - _DirtBoots: 0
    - _DirtRoughness_Power: 0
    - _DirtRoughness_Power1: 0
    - _DoubleSidedEnable: 0
    - _DoubleSidedGIMode: 0
    - _DoubleSidedNormalMode: 2
    - _DstBlend: 0
    - _EmissivePannerTilling: 1
    - _EmissivePower1: 0
    - _EmissivePower2: 0
    - _EmissivePower3: 0
    - _EmissivePower4: 0
    - _Emissivepowerboost: 100
    - _EnableBlendModePreserveSpecularLighting: 1
    - _EnableFogOnTransparent: 1
    - _FreaklesColorPower: 0
    - _GlossMapScale: 1
    - _Glossiness: 0.5
    - _GlossyReflections: 1
    - _HairCapLongColorPower: 0
    - _HairCapRoughness: 0.6
    - _HairCapShortColorPower: 0
    - _LipNailColorPower: 0
    - _LipsNailRoughnessBoost: 0.75
    - _Metallic: 0
    - _Mode: 0
    - _OcclusionStrength: 1
    - _OpaqueCullMode: 2
    - _Parallax: 0.02
    - _ReceivesSSR: 1
    - _ReceivesSSRTransparent: 0
    - _RenderQueueType: 1
    - _RequireSplitLighting: 1
    - _SSSonoff: 1.2
    - _SkinPore_Power: 0.15
    - _SkinPore_Tilling: 35
    - _SkinRounghnessBoots: 0.7
    - _SmoothnessTextureChannel: 0
    - _SpecularHighlights: 1
    - _SrcBlend: 1
    - _StencilRef: 4
    - _StencilRefDepth: 8
    - _StencilRefDistortionVec: 4
    - _StencilRefGBuffer: 14
    - _StencilRefMV: 40
    - _StencilWriteMask: 6
    - _StencilWriteMaskDepth: 9
    - _StencilWriteMaskDistortionVec: 4
    - _StencilWriteMaskGBuffer: 15
    - _StencilWriteMaskMV: 41
    - _SupportDecals: 1
    - _SurfaceType: 0
    - _TransAmbient: 0.2
    - _TransDirect: 1
    - _TransNormalDistortion: 0.1
    - _TransScattering: 2
    - _TransShadow: 0.9
    - _Translucency: 1
    - _TransparentBackfaceEnable: 0
    - _TransparentCullMode: 2
    - _TransparentSortPriority: 0
    - _TransparentWritingMotionVec: 0
    - _TransparentZWrite: 1
    - _UVSec: 0
    - _UseShadowThreshold: 0
    - _ZTestDepthEqualForOpaque: 3
    - _ZTestGBuffer: 4
    - _ZTestTransparent: 4
    - _ZWrite: 1
    - __dirty: 1
    m_Colors:
    - _BaseColorMul: {r: 0.49056602, g: 0.31617442, b: 0.2707369, a: 0}
    - _BlendColor01: {r: 0.5686275, g: 0.5686275, b: 0.5686275, a: 0}
    - _BlendColor02: {r: 1, g: 1, b: 1, a: 0}
    - _BlendColor03: {r: 1, g: 1, b: 1, a: 0}
    - _BlendColor04: {r: 1, g: 1, b: 1, a: 0}
    - _Color: {r: 1, g: 1, b: 1, a: 1}
    - _DiffusionProfileAsset: {r: -1.6797892e-25, g: 7.5395147e+31, b: -0.4138949,
        a: -7.155814e+25}
    - _DoubleSidedConstants: {r: 1, g: 1, b: -1, a: 0}
    - _EmissionColor: {r: 1, g: 1, b: 1, a: 1}
    - _EmissiveColor1: {r: 0, g: 0, b: 0, a: 0}
    - _EmissiveColor2: {r: 0, g: 0, b: 0, a: 0}
    - _EmissiveColor3: {r: 0, g: 0, b: 0, a: 0}
    - _EmissiveColor4: {r: 0, g: 0, b: 0, a: 0}
    - _FreaklesColor: {r: 1, g: 1, b: 1, a: 0}
    - _HairCapLongColor: {r: 1, g: 1, b: 1, a: 0}
    - _HairCapShortColor: {r: 1, g: 1, b: 1, a: 0}
    - _LipNailColor: {r: 1, g: 1, b: 1, a: 0}
    - _PannerProperty: {r: 0, g: 0, b: 0, a: 0}
    - _SSSColor: {r: 0.5471698, g: 0.07778393, b: 0, a: 1}
    - _Tint: {r: 1, g: 0.8288271, b: 0.7311321, a: 0}
  m_BuildTextureStacks: []
